<?xml version="1.0" encoding="utf-8"?>
<!-- Generator: Adobe Illustrator 22.1.0, SVG Export Plug-In . SVG Version: 6.00 Build 0)  -->
<svg version="1.1" id="arrow-rounded-down-9x6" xmlns="http://www.w3.org/2000/svg" xmlns:xlink="http://www.w3.org/1999/xlink" x="0px" y="0px"
	 viewBox="0 0 9 6" style="enable-background:new 0 0 9 6;" xml:space="preserve">
<path d="M0.2,0.4c0.4-0.4,1-0.5,1.4-0.1l2.9,3l2.9-3c0.4-0.4,1.1-0.4,1.4,0.1c0.3,0.4,0.3,0.9-0.1,1.3L4.5,6L0.3,1.6
	C-0.1,1.3-0.1,0.7,0.2,0.4z"/>
</svg>
